…
```
## # A tibble: 33 x 21
##    Characteristics `Activity Reduc… TotalPop `Less Accomplis… TotalPop2
##    <chr>           <chr>            <chr>    <chr>            <chr>    
##  1 Male            610              5222 (1… 903              5221 (17…
##  2 Female          846              4999 (1… 1155             4996 (23…
##  3 Leukemia        321              2811 (1… 478              2812 (17…
##  4 Hodgkin         93               732 (12… 132              730 (18.…
##  5 NHL             75               527 (14… 110              530 (20.…
##  6 CNS             437              2153 (2… 585              2153 (27…
##  7 Neuroblastoma   55               424 (13… 79               425 (18.…
##  8 Non-Heritable … 47               407 (11… 69               405 (17.…
##  9 Heritable Reti… 43               288 (14… 68               290 (23.…
## 10 Wilms           119              939 (12… 153              935 (16.…
## # … with 23 more rows, and 16 more variables: `Less Careful Work` <chr>,
## #   TotalPop3 <chr>, `Phys_Emotional Prob Affectting Social Activity` <chr>,
## #   TotalPop4 <chr>, `Health limits Social Act` <chr>, TotalPop5 <chr>,
## #   Nervousness <chr>, TotalPop6 <chr>, Uncheerable <chr>, TotaPop7 <chr>,
## #   Calm <chr>, TotalPop8 <chr>, Downhearted <chr>, TotalPop9 <chr>,
## #   Happy <chr>, TotalPop10 <chr>
```
…
```
## # A tibble: 33 x 31
##    Characteristics `Activity Reduc… TotalPop1 `% Reported1` `Less Accomplis…
##    <chr>           <chr>            <chr>     <chr>         <chr>           
##  1 Male            610              5222      (11.7)        903             
##  2 Female          846              4999      (16.9)        1155            
##  3 Leukemia        321              2811      (11.4)        478             
##  4 Hodgkin         93               732       (12.7)        132             
##  5 NHL             75               527       (14.2)        110             
##  6 CNS             437              2153      (20.3)        585             
##  7 Neuroblastoma   55               424       (13.0)        79              
##  8 Non-Heritable … 47               407       (11.6)        69              
##  9 Heritable Reti… 43               288       (14.9)        68              
## 10 Wilms           119              939       (12.7)        153             
## # … with 23 more rows, and 26 more variables: TotalPop2 <chr>, `%
## #   Reported2` <chr>, `Less Careful Work` <chr>, TotalPop3 <chr>, `%
## #   Reported3` <chr>, `Phys_Emotional Prob Affectting Social Activity` <chr>,
## #   TotalPop4 <chr>, `% Reported4` <chr>, `Health limits Social Act` <chr>,
## #   TotalPop5 <chr>, `% Reported5` <chr>, Nervousness <chr>, TotalPop6 <chr>,
## #   `% Reported6` <chr>, Uncheerable <chr>, TotalPop7 <chr>, `%
## #   Reported7` <chr>, Calm <chr>, TotalPop8 <chr>, `% Reported8` <chr>,
## #   Downhearted <chr>, TotalPop9 <chr>, `% Reported9` <chr>, Happy <chr>,
## #   TotalPop10 <chr>, `% Reported10` <chr>
```
…
 
plot3$Observations <- as.numeric(plot3$Observations)
plot3
```

```
## # A tibble: 55 x 3
##    Diagnosis                    Emotional_State Observations
##    <chr>                        <chr>                  <dbl>
##  1 Neuroblastoma                Happy                     98
##  2 Leukemia                     Downhearted              977
##  3 Bone Sarcoma                 Uncheerable               96
##  4 Non-Heritable Retinoblastoma Happy                     94
##  5 CNS                          Downhearted              887
##  6 Heritable Retinoblastoma     Downhearted               88
##  7 Non-Heritable Retinoblastoma Uncheerable               86
##  8 Leukemia                     Nervousness              848
##  9 CNS                          Nervousness              771
## 10 Leukemia                     Uncheerable              686
## # … with 45 more rows
```
…
plot4$Observations <- as.numeric(plot4$Observations)
plot4
```

```
## # A tibble: 33 x 3
##    Diagnosis                 Soc_State                              Observations
##    <chr>                     <chr>                                         <dbl>
##  1 Bone Sarcoma              Less Accomplished                                97
##  2 Hodgkin                   Activity Reduction                               93
##  3 Other                     Activity Reduction                               91
##  4 NHL                       Phys_Emotional Prob Affectting Social…           85
##  5 Neuroblastoma             Less Accomplished                                79
##  6 NHL                       Activity Reduction                               75
##  7 Bone Sarcoma              Activity Reduction                               75
##  8 Neuroblastoma             Phys_Emotional Prob Affectting Social…           72
##  9 Non-Heritable Retinoblas… Less Accomplished                                69
## 10 Heritable Retinoblastoma  Less Accomplished                                68
## # … with 23 more rows
```
…
 
plot6$Observations <- as.numeric(plot6$Observations)
plot6
```

```
## # A tibble: 25 x 3
##    Marriage_Status Emotional_State Observations
##    <chr>           <chr>                  <dbl>
##  1 Separated       Calm                      81
##  2 Married         Downhearted              792
##  3 Separated       Downhearted               79
##  4 Married         Nervousness              645
##  5 Married         Happy                    561
##  6 Separated       Nervousness               54
##  7 Separated       Uncheerable               51
##  8 Married         Uncheerable              500
##  9 Separated       Happy                     49
## 10 Single          Calm                    2437
## # … with 15 more rows
```
…
