…
## Practice
1. Are these data tidy? Please use `pivot_longer()` to tidy the data. Here we use back ticks on the column names so R does not confuse them with numerical indices.

```r
expenditures %>% 
  pivot_longer(-expenditure, #expenditure does not pivot
               names_to = "year", 
               values_to = "amt"
               )
```

```
## # A tibble: 25 x 3
##    expenditure         year    amt
##    <chr>               <chr> <dbl>
##  1 Food and Tobacco    1940   22.2
##  2 Food and Tobacco    1945   44.5
##  3 Food and Tobacco    1950   59.6
##  4 Food and Tobacco    1955   73.2
##  5 Food and Tobacco    1960   86.8
##  6 Household Operation 1940   10.5
##  7 Household Operation 1945   15.5
##  8 Household Operation 1950   29  
##  9 Household Operation 1955   36.5
## 10 Household Operation 1960   46.2
## # … with 15 more rows
```
…
## `summarize()`
`summarize()` will produce summary statistics for a given variable in a data frame. For example, in homework 2 you were asked to calculate the mean of the sleep total column for large and small mammals. We did this using a combination of tidyverse and base R commands, which isn't very efficient or clean. We can do better!  

```r
msleep
```

```
## # A tibble: 83 x 11
##    name  genus vore  order conservation sleep_total sleep_rem sleep_cycle awake
##    <chr> <chr> <chr> <chr> <chr>              <dbl>     <dbl>       <dbl> <dbl>
##  1 Chee… Acin… carni Carn… lc                  12.1      NA        NA      11.9
##  2 Owl … Aotus omni  Prim… <NA>                17         1.8      NA       7  
##  3 Moun… Aplo… herbi Rode… nt                  14.4       2.4      NA       9.6
##  4 Grea… Blar… omni  Sori… lc                  14.9       2.3       0.133   9.1
##  5 Cow   Bos   herbi Arti… domesticated         4         0.7       0.667  20  
##  6 Thre… Brad… herbi Pilo… <NA>                14.4       2.2       0.767   9.6
##  7 Nort… Call… carni Carn… vu                   8.7       1.4       0.383  15.3
##  8 Vesp… Calo… <NA>  Rode… <NA>                 7        NA        NA      17  
##  9 Dog   Canis carni Carn… domesticated        10.1       2.9       0.333  13.9
## 10 Roe … Capr… herbi Arti… lc                   3        NA        NA      21  
## # … with 73 more rows, and 2 more variables: brainwt <dbl>, bodywt <dbl>
```
…
You can also use `count()` across multiple variables.

```r
msleep %>% 
  count(order, vore, sort = TRUE)
```

```
## # A tibble: 32 x 3
##    order          vore        n
##    <chr>          <chr>   <int>
##  1 Rodentia       herbi      16
##  2 Carnivora      carni      12
##  3 Primates       omni       10
##  4 Artiodactyla   herbi       5
##  5 Cetacea        carni       3
##  6 Perissodactyla herbi       3
##  7 Rodentia       <NA>        3
##  8 Soricomorpha   omni        3
##  9 Chiroptera     insecti     2
## 10 Hyracoidea     herbi       2
## # … with 22 more rows
```
…
